<svg xmlns="http://www.w3.org/2000/svg" viewBox="0.0 0.0 240.2 217.3">
  <title>HTML5 3D Effects Logo</title>
  <path fill="#6f6f6f" d="M130.2,0L68.5,19.9 202.2,63.2 202.2,148.5 113.1,177.3 37.9,153.0 37.9,69.4 110.6,92.9 172.3,73.0 38.4,29.6 0,42.1 0,180.6 113.1,217.2 240.2,176.1 240.2,35.5z"/>
</svg>
